{
  "expoServerNgrokUrl": "https://z7-3kt.anonymous.mechanicapps.exp.direct",
  "packagerNgrokUrl": "https://packager.z7-3kt.anonymous.mechanicapps.exp.direct",
  "ngrokPid": 36460,
  "webpackServerPort": 19006,
  "expoServerPort": 19000,
  "packagerPort": 19004,
  "packagerPid": 28780,
  "devToolsPort": 19003
}
